r|2018-03-22|10:41:20|849711|4495|0000-00-00
r|2018-03-22|10:41:24|849711|6430|0000-00-00
i|2018-03-22|10:41:49|849711|3386|2018-03-26
r|2018-03-22|10:45:03|255939|5089|0000-00-00
r|2018-03-22|10:45:33|114985|6471|0000-00-00
r|2018-03-22|10:52:52|264754|6095|0000-00-00
i|2018-03-22|10:52:52|264754|6095|2018-03-26
r|2018-03-22|10:53:27|029010|5169|0000-00-00
r|2018-03-22|10:54:17|406026|5013|0000-00-00
i|2018-03-22|10:54:56|406026|5013|2018-03-26
r|2018-03-22|10:55:41|262991|6593|0000-00-00
i|2018-03-22|10:55:41|262991|6593|2018-03-26
i|2018-03-22|10:56:31|406026|5114|2018-03-23
i|2018-03-22|11:12:13|552250|4792|2018-03-23
r|2018-03-22|11:25:28|703824|6484|0000-00-00
r|2018-03-22|11:43:59|58573|5584|0000-00-00
i|2018-03-22|12:06:37|407472|5623|2018-03-26
i|2018-03-22|12:25:22|449001|6471|2018-03-27
r|2018-03-22|12:33:16|995297|6591|0000-00-00
i|2018-03-22|12:33:16|995297|6591|2018-03-27
i|2018-03-22|12:34:08|168088|4825|2018-03-27
i|2018-03-22|12:37:00|564598|6778|2018-03-27
i|2018-03-22|12:39:01|990633|5308|2018-03-28
r|2018-03-22|12:41:04|700833|2657|0000-00-00
i|2018-03-22|12:41:44|700833|6094|2018-03-28
r|2018-03-22|12:45:16|562667|6602|0000-00-00
i|2018-03-22|12:45:54|562667|6602|2018-04-14
i|2018-03-22|12:48:24|774466|5652|2018-03-27
r|2018-03-22|12:52:40|942082|6742|0000-00-00
r|2018-03-22|13:03:51|625724|5576|0000-00-00
r|2018-03-22|13:04:23|625724|5125|0000-00-00
i|2018-03-22|13:04:23|625724|5125|2018-03-28
r|2018-03-22|13:26:54|572301|6674|0000-00-00
r|2018-03-22|13:40:18|790943|4906|0000-00-00
r|2018-03-22|13:43:52|569187|4202|0000-00-00
r|2018-03-22|13:45:14|569187|4917|0000-00-00
i|2018-03-22|13:45:14|569187|4917|2018-03-28
r|2018-03-22|13:53:59|168012|5081|0000-00-00
i|2018-03-22|13:54:38|168012|5121|2018-03-28
i|2018-03-22|13:56:49|695474|1535|2018-03-28
i|2018-03-22|14:02:35|558540|6742|2018-03-28
r|2018-03-22|14:30:34|250467|6801|0000-00-00
r|2018-03-22|14:30:38|250467|6703|0000-00-00
r|2018-03-22|14:31:50|250467|4715|0000-00-00
r|2018-03-22|14:31:50|250467|6280|0000-00-00
i|2018-03-22|14:51:00|139148|3143|2018-03-27
i|2018-03-22|14:51:00|139148|6483|2018-03-27
i|2018-03-22|14:55:43|171419|3355|2018-03-27
i|2018-03-22|14:55:43|171419|6482|2018-03-27
r|2018-03-22|14:56:33|976179|6007|0000-00-00
i|2018-03-22|14:56:55|976179|3978|2018-03-28
i|2018-03-22|15:48:25|533547|5169|2018-03-28
i|2018-03-22|15:55:28|407424|4701|2018-03-28
i|2018-03-22|16:02:01|045215|6592|2018-03-27
i|2018-03-22|16:42:22|58573|6033|2018-03-26
i|2018-03-22|16:42:22|58573|6674|2018-03-26
i|2018-03-22|17:02:43|407345|3356|2018-03-28
i|2018-03-22|17:02:43|407345|4477|2018-03-28
r|2018-03-22|17:03:29|261010|4695|0000-00-00
r|2018-03-22|17:03:34|261010|6054|0000-00-00
i|2018-03-22|17:06:54|282647|6382|2018-03-28
r|2018-03-22|17:07:58|611063|6383|0000-00-00
r|2018-03-22|17:14:02|470042|5565|0000-00-00
r|2018-03-22|17:20:41|717370|4814|0000-00-00
i|2018-03-22|17:20:41|717370|4814|2018-04-05
i|2018-03-22|17:20:41|717370|4824|2018-03-28
i|2018-03-22|17:20:41|717370|4915|2018-03-28
r|2018-03-22|17:34:59|387500|5612|0000-00-00
i|2018-03-22|17:34:59|387500|5612|2018-03-26
i|2018-03-22|18:26:52|154175|6514|2018-03-27
r|2018-03-23|07:26:26|698073|5755|0000-00-00
i|2018-03-23|07:28:58|192469|499|2018-03-28
i|2018-03-23|07:45:37|035455|6525|2018-03-27
i|2018-03-23|07:46:46|162786|6068|2018-03-28
r|2018-03-23|09:02:02|540536|6004|0000-00-00
i|2018-03-23|09:02:45|540536|6004|2018-03-27
r|2018-03-23|09:34:43|552250|4792|0000-00-00
i|2018-03-23|09:50:42|611063|4033|2018-03-26
i|2018-03-23|09:50:42|611063|6383|2018-03-26
i|2018-03-23|09:52:00|441623|6821|2018-03-27
i|2018-03-23|10:03:31|825764|4557|2018-03-28
i|2018-03-23|10:04:42|167220|5294|2018-03-28
r|2018-03-23|10:16:44|829119|5574|0000-00-00
i|2018-03-23|10:35:58|839923|6007|2018-03-28
r|2018-03-23|11:15:09|776253|6526|0000-00-00
i|2018-03-23|11:15:09|776253|6526|2018-03-28
i|2018-03-23|11:26:29|259744|6746|2018-03-27
i|2018-03-23|11:38:11|827681|5534|2018-03-28
i|2018-03-23|11:53:45|829119|5510|2018-03-26
i|2018-03-23|11:55:06|405579|6605|2018-03-27
i|2018-03-23|11:56:20|564729|4906|2018-03-27
r|2018-03-23|13:03:05|406026|5114|0000-00-00
i|2018-03-23|13:03:05|406026|5114|2018-03-26
r|2018-03-23|13:22:13|84943|6717|0000-00-00
i|2018-03-23|13:22:13|84943|6717|2018-04-06
i|2018-03-23|14:41:05|268024|5211|2018-03-27
r|2018-03-23|14:55:12|739388|5540|0000-00-00
i|2018-03-23|14:56:41|268164|5540|2018-03-28
r|2018-03-23|15:01:33|268164|5540|0000-00-00
i|2018-03-23|15:05:38|268169|5540|2018-03-28
